[gd_resource type="SpriteFrames" load_steps=3 format=1]

[ext_resource path="res://assets/textures/office/cam/buttons/cam4_off.png" type="Texture" id=1]
[ext_resource path="res://assets/textures/office/cam/buttons/cam4_on.png" type="Texture" id=2]

[resource]

animations = [ { "frames":[ ExtResource( 1 ), ExtResource( 2 ) ], "loop":true, "name":"default", "speed":5.0 } ]

